<?xml version="1.0" standalone="no"?>
<!DOCTYPE svg PUBLIC "-//W3C//DTD SVG 1.1//EN" 
  "http://www.w3.org/Graphics/SVG/1.1/DTD/svg11.dtd">
<svg width="4096" height="4096" viewBox="0 0 4096 4096"
     xmlns="http://www.w3.org/2000/svg" version="1.1">
<desc>'puuska-10.blend', Circle.032, (Blender 2.78 (sub 0))</desc>
<polygon stroke="black" stroke-width="1" fill="rgb(204, 204, 204)" fill-opacity="1" points="3671.709,4052.927 3805.826,4051.313 3752.462,3796.349 3618.201,3797.953 " />
<polygon stroke="black" stroke-width="1" fill="rgb(204, 204, 204)" fill-opacity="1" points="3805.826,4051.313 3930.736,4049.911 3877.547,3794.880 3752.462,3796.349 " />
<polygon stroke="black" stroke-width="1" fill="rgb(204, 204, 204)" fill-opacity="1" points="3981.017,4049.068 4031.298,4048.226 3978.141,3793.278 3927.850,3794.079 " />
<polygon stroke="black" stroke-width="1" fill="rgb(204, 204, 204)" fill-opacity="1" points="2053.667,4056.225 2460.830,4056.224 2460.772,3801.141 2053.667,3801.082 " />
<polygon stroke="black" stroke-width="1" fill="rgb(204, 204, 204)" fill-opacity="1" points="2460.830,4056.224 2954.427,4055.924 2954.144,3800.891 2460.772,3801.141 " />
<polygon stroke="black" stroke-width="1" fill="rgb(204, 204, 204)" fill-opacity="1" points="2954.427,4055.924 3335.855,4055.275 3282.115,3800.407 2954.144,3800.891 " />
<polygon stroke="black" stroke-width="1" fill="rgb(204, 204, 204)" fill-opacity="1" points="3335.855,4055.275 3549.426,4053.967 3495.793,3799.038 3282.115,3800.407 " />
<polygon stroke="black" stroke-width="1" fill="rgb(204, 204, 204)" fill-opacity="1" points="3549.426,4053.967 3671.709,4052.927 3618.201,3797.953 3495.793,3799.038 " />
<polygon stroke="black" stroke-width="1" fill="rgb(204, 204, 204)" fill-opacity="1" points="2054.684,2896.437 2464.695,2897.427 2467.589,2445.801 2056.222,2443.809 " />
<polygon stroke="black" stroke-width="1" fill="rgb(204, 204, 204)" fill-opacity="1" points="2464.695,2897.427 2954.654,2898.136 2955.574,2447.513 2467.589,2445.801 " />
<polygon stroke="black" stroke-width="1" fill="rgb(204, 204, 204)" fill-opacity="1" points="2954.654,2898.136 3248.677,2897.915 3232.198,2447.936 2955.574,2447.513 " />
<polygon stroke="black" stroke-width="1" fill="rgb(204, 204, 204)" fill-opacity="1" points="3248.677,2897.915 3461.959,2896.574 3444.813,2446.925 3232.198,2447.936 " />
<polygon stroke="black" stroke-width="1" fill="rgb(204, 204, 204)" fill-opacity="1" points="3461.959,2896.574 3568.701,2895.548 3543.566,2445.917 3444.813,2446.925 " />
<polygon stroke="black" stroke-width="1" fill="rgb(204, 204, 204)" fill-opacity="1" points="3568.701,2895.548 3685.776,2894.104 3651.895,2444.355 3543.566,2445.917 " />
<polygon stroke="black" stroke-width="1" fill="rgb(204, 204, 204)" fill-opacity="1" points="3685.776,2894.104 3794.922,2892.708 3752.927,2442.859 3651.895,2444.355 " />
<polygon stroke="black" stroke-width="1" fill="rgb(204, 204, 204)" fill-opacity="1" points="3838.819,2892.010 3882.725,2891.305 3834.260,2441.196 3793.583,2442.029 " />
<polygon stroke="black" stroke-width="1" fill="rgb(204, 204, 204)" fill-opacity="1" points="418.230,4052.932 471.738,3797.956 337.477,3796.352 284.113,4051.317 " />
<polygon stroke="black" stroke-width="1" fill="rgb(204, 204, 204)" fill-opacity="1" points="284.113,4051.317 337.477,3796.352 212.391,3794.884 159.203,4049.916 " />
<polygon stroke="black" stroke-width="1" fill="rgb(204, 204, 204)" fill-opacity="1" points="108.921,4049.072 162.088,3794.083 111.797,3793.282 58.640,4048.231 " />
<polygon stroke="black" stroke-width="1" fill="rgb(204, 204, 204)" fill-opacity="1" points="2036.273,4056.225 2036.273,3801.082 1629.167,3801.142 1629.111,4056.225 " />
<polygon stroke="black" stroke-width="1" fill="rgb(204, 204, 204)" fill-opacity="1" points="1629.111,4056.225 1629.167,3801.142 1135.796,3800.893 1135.513,4055.926 " />
<polygon stroke="black" stroke-width="1" fill="rgb(204, 204, 204)" fill-opacity="1" points="1135.513,4055.926 1135.796,3800.893 807.824,3800.410 754.084,4055.278 " />
<polygon stroke="black" stroke-width="1" fill="rgb(204, 204, 204)" fill-opacity="1" points="754.084,4055.278 807.824,3800.410 594.146,3799.041 540.513,4053.971 " />
<polygon stroke="black" stroke-width="1" fill="rgb(204, 204, 204)" fill-opacity="1" points="540.513,4053.971 594.146,3799.041 471.738,3797.956 418.230,4052.932 " />
<polygon stroke="black" stroke-width="1" fill="rgb(204, 204, 204)" fill-opacity="1" points="2035.253,2896.437 2033.715,2443.809 1622.348,2445.801 1625.242,2897.428 " />
<polygon stroke="black" stroke-width="1" fill="rgb(204, 204, 204)" fill-opacity="1" points="1625.242,2897.428 1622.348,2445.801 1134.363,2447.515 1135.283,2898.137 " />
<polygon stroke="black" stroke-width="1" fill="rgb(204, 204, 204)" fill-opacity="1" points="1135.283,2898.137 1134.363,2447.515 857.738,2447.938 841.261,2897.917 " />
<polygon stroke="black" stroke-width="1" fill="rgb(204, 204, 204)" fill-opacity="1" points="841.261,2897.917 857.738,2447.938 645.124,2446.927 627.978,2896.576 " />
<polygon stroke="black" stroke-width="1" fill="rgb(204, 204, 204)" fill-opacity="1" points="627.978,2896.576 645.124,2446.927 546.370,2445.919 521.236,2895.550 " />
<polygon stroke="black" stroke-width="1" fill="rgb(204, 204, 204)" fill-opacity="1" points="521.236,2895.550 546.370,2445.919 438.042,2444.358 404.161,2894.106 " />
<polygon stroke="black" stroke-width="1" fill="rgb(204, 204, 204)" fill-opacity="1" points="404.161,2894.106 438.042,2444.358 337.010,2442.863 295.016,2892.711 " />
<polygon stroke="black" stroke-width="1" fill="rgb(204, 204, 204)" fill-opacity="1" points="251.118,2892.012 296.354,2442.032 255.677,2441.199 207.212,2891.307 " />
<polygon stroke="black" stroke-width="1" fill="rgb(204, 204, 204)" fill-opacity="1" points="296.354,2442.032 337.010,2442.863 513.281,1728.671 479.367,1727.652 " />
<polygon stroke="black" stroke-width="1" fill="rgb(204, 204, 204)" fill-opacity="1" points="2056.222,2443.809 2467.589,2445.801 2478.527,1727.253 2061.455,1723.139 " />
<polygon stroke="black" stroke-width="1" fill="rgb(204, 204, 204)" fill-opacity="1" points="2467.589,2445.801 2955.574,2447.513 2913.793,1731.555 2478.527,1727.253 " />
<polygon stroke="black" stroke-width="1" fill="rgb(204, 204, 204)" fill-opacity="1" points="2955.574,2447.513 3232.198,2447.936 3162.963,1733.616 2913.793,1731.555 " />
<polygon stroke="black" stroke-width="1" fill="rgb(204, 204, 204)" fill-opacity="1" points="3232.198,2447.936 3444.813,2446.925 3319.692,1732.983 3162.963,1733.616 " />
<polygon stroke="black" stroke-width="1" fill="rgb(204, 204, 204)" fill-opacity="1" points="1622.348,2445.801 2033.715,2443.809 2028.480,1723.139 1611.408,1727.254 " />
<polygon stroke="black" stroke-width="1" fill="rgb(204, 204, 204)" fill-opacity="1" points="1134.363,2447.515 1622.348,2445.801 1611.408,1727.254 1176.142,1731.557 " />
<polygon stroke="black" stroke-width="1" fill="rgb(204, 204, 204)" fill-opacity="1" points="3444.813,2446.925 3543.566,2445.917 3402.055,1732.042 3319.692,1732.983 " />
<polygon stroke="black" stroke-width="1" fill="rgb(204, 204, 204)" fill-opacity="1" points="857.738,2447.938 1134.363,2447.515 1176.142,1731.557 926.972,1733.619 " />
<polygon stroke="black" stroke-width="1" fill="rgb(204, 204, 204)" fill-opacity="1" points="3543.566,2445.917 3651.895,2444.355 3492.387,1730.297 3402.055,1732.042 " />
<polygon stroke="black" stroke-width="1" fill="rgb(204, 204, 204)" fill-opacity="1" points="645.124,2446.927 857.738,2447.938 926.972,1733.619 770.243,1732.986 " />
<polygon stroke="black" stroke-width="1" fill="rgb(204, 204, 204)" fill-opacity="1" points="3651.895,2444.355 3752.927,2442.859 3576.654,1728.668 3492.387,1730.297 " />
<polygon stroke="black" stroke-width="1" fill="rgb(204, 204, 204)" fill-opacity="1" points="546.370,2445.919 645.124,2446.927 770.243,1732.986 687.880,1732.044 " />
<polygon stroke="black" stroke-width="1" fill="rgb(204, 204, 204)" fill-opacity="1" points="3793.583,2442.029 3834.260,2441.196 3644.490,1726.632 3610.568,1727.648 " />
<polygon stroke="black" stroke-width="1" fill="rgb(204, 204, 204)" fill-opacity="1" points="438.042,2444.358 546.370,2445.919 687.880,1732.044 597.548,1730.300 " />
<polygon stroke="black" stroke-width="1" fill="rgb(204, 204, 204)" fill-opacity="1" points="337.010,2442.863 438.042,2444.358 597.548,1730.300 513.281,1728.671 " />
<polygon stroke="black" stroke-width="1" fill="rgb(204, 204, 204)" fill-opacity="1" points="2913.793,1731.555 3162.963,1733.616 3040.863,1270.803 2841.555,1267.493 " />
<polygon stroke="black" stroke-width="1" fill="rgb(204, 204, 204)" fill-opacity="1" points="1611.408,1727.254 2028.480,1723.139 2023.062,1256.830 1596.874,1262.441 " />
<polygon stroke="black" stroke-width="1" fill="rgb(204, 204, 204)" fill-opacity="1" points="3162.963,1733.616 3319.692,1732.983 3165.996,1270.805 3040.863,1270.803 " />
<polygon stroke="black" stroke-width="1" fill="rgb(204, 204, 204)" fill-opacity="1" points="1176.142,1731.557 1611.408,1727.254 1596.874,1262.441 1248.379,1267.495 " />
<polygon stroke="black" stroke-width="1" fill="rgb(204, 204, 204)" fill-opacity="1" points="3319.692,1732.983 3402.055,1732.042 3231.675,1270.087 3165.996,1270.805 " />
<polygon stroke="black" stroke-width="1" fill="rgb(204, 204, 204)" fill-opacity="1" points="926.972,1733.619 1176.142,1731.557 1248.379,1267.495 1049.072,1270.805 " />
<polygon stroke="black" stroke-width="1" fill="rgb(204, 204, 204)" fill-opacity="1" points="3402.055,1732.042 3492.387,1730.297 3303.671,1268.396 3231.675,1270.087 " />
<polygon stroke="black" stroke-width="1" fill="rgb(204, 204, 204)" fill-opacity="1" points="770.243,1732.986 926.972,1733.619 1049.072,1270.805 923.938,1270.807 " />
<polygon stroke="black" stroke-width="1" fill="rgb(204, 204, 204)" fill-opacity="1" points="3492.387,1730.297 3576.654,1728.668 3370.728,1266.879 3303.671,1268.396 " />
<polygon stroke="black" stroke-width="1" fill="rgb(204, 204, 204)" fill-opacity="1" points="687.880,1732.044 770.243,1732.986 923.938,1270.807 858.259,1270.089 " />
<polygon stroke="black" stroke-width="1" fill="rgb(204, 204, 204)" fill-opacity="1" points="3610.568,1727.648 3644.490,1726.632 3424.777,1264.678 3397.747,1265.772 " />
<polygon stroke="black" stroke-width="1" fill="rgb(204, 204, 204)" fill-opacity="1" points="597.548,1730.300 687.880,1732.044 858.259,1270.089 786.264,1268.399 " />
<polygon stroke="black" stroke-width="1" fill="rgb(204, 204, 204)" fill-opacity="1" points="513.281,1728.671 597.548,1730.300 786.264,1268.399 719.206,1266.882 " />
<polygon stroke="black" stroke-width="1" fill="rgb(204, 204, 204)" fill-opacity="1" points="479.367,1727.652 513.281,1728.671 719.206,1266.882 692.188,1265.775 " />
<polygon stroke="black" stroke-width="1" fill="rgb(204, 204, 204)" fill-opacity="1" points="2061.455,1723.139 2478.527,1727.253 2493.060,1262.440 2066.872,1256.831 " />
<polygon stroke="black" stroke-width="1" fill="rgb(204, 204, 204)" fill-opacity="1" points="2478.527,1727.253 2913.793,1731.555 2841.555,1267.493 2493.060,1262.440 " />
<polygon stroke="black" stroke-width="1" fill="rgb(204, 204, 204)" fill-opacity="1" points="3231.675,1270.087 3303.671,1268.396 3138.057,1040.828 3073.788,1042.425 " />
<polygon stroke="black" stroke-width="1" fill="rgb(204, 204, 204)" fill-opacity="1" points="923.938,1270.807 1049.072,1270.805 1186.793,1043.005 1074.785,1043.019 " />
<polygon stroke="black" stroke-width="1" fill="rgb(204, 204, 204)" fill-opacity="1" points="3303.671,1268.396 3370.728,1266.879 3197.822,1039.472 3138.057,1040.828 " />
<polygon stroke="black" stroke-width="1" fill="rgb(204, 204, 204)" fill-opacity="1" points="858.259,1270.089 923.938,1270.807 1074.785,1043.019 1016.146,1042.427 " />
<polygon stroke="black" stroke-width="1" fill="rgb(204, 204, 204)" fill-opacity="1" points="3397.747,1265.772 3424.777,1264.678 3245.790,1037.348 3221.826,1038.406 " />
<polygon stroke="black" stroke-width="1" fill="rgb(204, 204, 204)" fill-opacity="1" points="786.264,1268.399 858.259,1270.089 1016.146,1042.427 951.877,1040.831 " />
<polygon stroke="black" stroke-width="1" fill="rgb(204, 204, 204)" fill-opacity="1" points="719.206,1266.882 786.264,1268.399 951.877,1040.831 892.111,1039.475 " />
<polygon stroke="black" stroke-width="1" fill="rgb(204, 204, 204)" fill-opacity="1" points="692.188,1265.775 719.206,1266.882 892.111,1039.475 868.108,1038.409 " />
<polygon stroke="black" stroke-width="1" fill="rgb(204, 204, 204)" fill-opacity="1" points="2066.872,1256.831 2493.060,1262.440 2415.024,1035.715 2070.320,1031.102 " />
<polygon stroke="black" stroke-width="1" fill="rgb(204, 204, 204)" fill-opacity="1" points="2493.060,1262.440 2841.555,1267.493 2725.012,1040.109 2415.024,1035.715 " />
<polygon stroke="black" stroke-width="1" fill="rgb(204, 204, 204)" fill-opacity="1" points="2841.555,1267.493 3040.863,1270.803 2903.140,1043.003 2725.012,1040.109 " />
<polygon stroke="black" stroke-width="1" fill="rgb(204, 204, 204)" fill-opacity="1" points="1596.874,1262.441 2023.062,1256.830 2019.614,1031.102 1674.909,1035.716 " />
<polygon stroke="black" stroke-width="1" fill="rgb(204, 204, 204)" fill-opacity="1" points="3040.863,1270.803 3165.996,1270.805 3015.149,1043.017 2903.140,1043.003 " />
<polygon stroke="black" stroke-width="1" fill="rgb(204, 204, 204)" fill-opacity="1" points="1248.379,1267.495 1596.874,1262.441 1674.909,1035.716 1364.921,1040.111 " />
<polygon stroke="black" stroke-width="1" fill="rgb(204, 204, 204)" fill-opacity="1" points="3165.996,1270.805 3231.675,1270.087 3073.788,1042.425 3015.149,1043.017 " />
<polygon stroke="black" stroke-width="1" fill="rgb(204, 204, 204)" fill-opacity="1" points="1049.072,1270.805 1248.379,1267.495 1364.921,1040.111 1186.793,1043.005 " />
<polygon stroke="black" stroke-width="1" fill="rgb(204, 204, 204)" fill-opacity="1" points="162.088,3794.083 206.600,3342.821 159.488,3342.110 111.797,3793.282 " />
<polygon stroke="black" stroke-width="1" fill="rgb(204, 204, 204)" fill-opacity="1" points="206.600,3342.821 251.118,2892.012 207.212,2891.307 159.488,3342.110 " />
<polygon stroke="black" stroke-width="1" fill="rgb(204, 204, 204)" fill-opacity="1" points="337.477,3796.352 370.798,3344.932 253.700,3343.528 212.391,3794.884 " />
<polygon stroke="black" stroke-width="1" fill="rgb(204, 204, 204)" fill-opacity="1" points="370.798,3344.932 404.161,2894.106 295.016,2892.711 253.700,3343.528 " />
<polygon stroke="black" stroke-width="1" fill="rgb(204, 204, 204)" fill-opacity="1" points="471.738,3797.956 496.460,3346.407 370.798,3344.932 337.477,3796.352 " />
<polygon stroke="black" stroke-width="1" fill="rgb(204, 204, 204)" fill-opacity="1" points="496.460,3346.407 521.236,2895.550 404.161,2894.106 370.798,3344.932 " />
<polygon stroke="black" stroke-width="1" fill="rgb(204, 204, 204)" fill-opacity="1" points="594.146,3799.041 611.034,3347.467 496.460,3346.407 471.738,3797.956 " />
<polygon stroke="black" stroke-width="1" fill="rgb(204, 204, 204)" fill-opacity="1" points="611.034,3347.467 627.978,2896.576 521.236,2895.550 496.460,3346.407 " />
<polygon stroke="black" stroke-width="1" fill="rgb(204, 204, 204)" fill-opacity="1" points="807.824,3800.410 824.557,3348.892 611.034,3347.467 594.146,3799.041 " />
<polygon stroke="black" stroke-width="1" fill="rgb(204, 204, 204)" fill-opacity="1" points="824.557,3348.892 841.261,2897.917 627.978,2896.576 611.034,3347.467 " />
<polygon stroke="black" stroke-width="1" fill="rgb(204, 204, 204)" fill-opacity="1" points="1135.796,3800.893 1135.642,3349.347 824.557,3348.892 807.824,3800.410 " />
<polygon stroke="black" stroke-width="1" fill="rgb(204, 204, 204)" fill-opacity="1" points="1135.642,3349.347 1135.283,2898.137 841.261,2897.917 824.557,3348.892 " />
<polygon stroke="black" stroke-width="1" fill="rgb(204, 204, 204)" fill-opacity="1" points="1629.167,3801.142 1627.401,3349.242 1135.642,3349.347 1135.796,3800.893 " />
<polygon stroke="black" stroke-width="1" fill="rgb(204, 204, 204)" fill-opacity="1" points="1627.401,3349.242 1625.242,2897.428 1135.283,2898.137 1135.642,3349.347 " />
<polygon stroke="black" stroke-width="1" fill="rgb(204, 204, 204)" fill-opacity="1" points="2036.273,3801.082 2035.980,3348.843 1627.401,3349.242 1629.167,3801.142 " />
<polygon stroke="black" stroke-width="1" fill="rgb(204, 204, 204)" fill-opacity="1" points="2035.980,3348.843 2035.253,2896.437 1625.242,2897.428 1627.401,3349.242 " />
<polygon stroke="black" stroke-width="1" fill="rgb(204, 204, 204)" fill-opacity="1" points="3927.850,3794.079 3978.141,3793.278 3930.449,3342.107 3883.337,3342.818 " />
<polygon stroke="black" stroke-width="1" fill="rgb(204, 204, 204)" fill-opacity="1" points="3883.337,3342.818 3930.449,3342.107 3882.725,2891.305 3838.819,2892.010 " />
<polygon stroke="black" stroke-width="1" fill="rgb(204, 204, 204)" fill-opacity="1" points="3752.462,3796.349 3877.547,3794.880 3836.237,3343.525 3719.139,3344.930 " />
<polygon stroke="black" stroke-width="1" fill="rgb(204, 204, 204)" fill-opacity="1" points="3719.139,3344.930 3836.237,3343.525 3794.922,2892.708 3685.776,2894.104 " />
<polygon stroke="black" stroke-width="1" fill="rgb(204, 204, 204)" fill-opacity="1" points="3618.201,3797.953 3752.462,3796.349 3719.139,3344.930 3593.479,3346.405 " />
<polygon stroke="black" stroke-width="1" fill="rgb(204, 204, 204)" fill-opacity="1" points="3593.479,3346.405 3719.139,3344.930 3685.776,2894.104 3568.701,2895.548 " />
<polygon stroke="black" stroke-width="1" fill="rgb(204, 204, 204)" fill-opacity="1" points="3495.793,3799.038 3618.201,3797.953 3593.479,3346.405 3478.904,3347.465 " />
<polygon stroke="black" stroke-width="1" fill="rgb(204, 204, 204)" fill-opacity="1" points="3478.904,3347.465 3593.479,3346.405 3568.701,2895.548 3461.959,2896.574 " />
<polygon stroke="black" stroke-width="1" fill="rgb(204, 204, 204)" fill-opacity="1" points="3282.115,3800.407 3495.793,3799.038 3478.904,3347.465 3265.381,3348.889 " />
<polygon stroke="black" stroke-width="1" fill="rgb(204, 204, 204)" fill-opacity="1" points="3265.381,3348.889 3478.904,3347.465 3461.959,2896.574 3248.677,2897.915 " />
<polygon stroke="black" stroke-width="1" fill="rgb(204, 204, 204)" fill-opacity="1" points="2954.144,3800.891 3282.115,3800.407 3265.381,3348.889 2954.297,3349.345 " />
<polygon stroke="black" stroke-width="1" fill="rgb(204, 204, 204)" fill-opacity="1" points="2954.297,3349.345 3265.381,3348.889 3248.677,2897.915 2954.654,2898.136 " />
<polygon stroke="black" stroke-width="1" fill="rgb(204, 204, 204)" fill-opacity="1" points="2460.772,3801.141 2954.144,3800.891 2954.297,3349.345 2462.537,3349.242 " />
<polygon stroke="black" stroke-width="1" fill="rgb(204, 204, 204)" fill-opacity="1" points="2462.537,3349.242 2954.297,3349.345 2954.654,2898.136 2464.695,2897.427 " />
<polygon stroke="black" stroke-width="1" fill="rgb(204, 204, 204)" fill-opacity="1" points="2053.667,3801.082 2460.772,3801.141 2462.537,3349.242 2053.958,3348.843 " />
<polygon stroke="black" stroke-width="1" fill="rgb(204, 204, 204)" fill-opacity="1" points="2053.958,3348.843 2462.537,3349.242 2464.695,2897.427 2054.684,2896.437 " />
<polygon stroke="black" stroke-width="1" fill="rgb(204, 204, 204)" fill-opacity="1" points="1789.562,972.904 1789.562,1013.708 1907.363,1013.708 1907.363,993.520 " />
<polygon stroke="black" stroke-width="1" fill="rgb(204, 204, 204)" fill-opacity="1" points="3108.726,919.250 3165.283,929.148 3165.283,919.456 3108.726,899.660 " />
<polygon stroke="black" stroke-width="1" fill="rgb(204, 204, 204)" fill-opacity="1" points="3048.065,908.564 3108.726,919.250 3108.726,899.660 3048.065,878.288 " />
<polygon stroke="black" stroke-width="1" fill="rgb(204, 204, 204)" fill-opacity="1" points="2991.596,900.657 3048.065,908.564 3048.065,878.288 2991.596,862.474 " />
<polygon stroke="black" stroke-width="1" fill="rgb(204, 204, 204)" fill-opacity="1" points="2882.319,889.234 2991.596,900.657 2991.596,862.474 2882.319,839.627 " />
<polygon stroke="black" stroke-width="1" fill="rgb(204, 204, 204)" fill-opacity="1" points="2705.246,884.895 2882.319,889.234 2882.319,839.627 2705.246,830.949 " />
<polygon stroke="black" stroke-width="1" fill="rgb(204, 204, 204)" fill-opacity="1" points="2396.770,881.621 2705.246,884.895 2705.246,830.949 2396.770,824.401 " />
<polygon stroke="black" stroke-width="1" fill="rgb(204, 204, 204)" fill-opacity="1" points="2053.667,880.931 2396.770,881.621 2396.770,824.401 2053.667,823.021 " />
<polygon stroke="black" stroke-width="1" fill="rgb(204, 204, 204)" fill-opacity="1" points="2846.008,443.007 3070.203,450.439 3070.203,392.530 2846.008,377.666 " />
<polygon stroke="black" stroke-width="1" fill="rgb(204, 204, 204)" fill-opacity="1" points="2846.010,86.104 2382.979,102.612 2382.979,184.464 2846.010,151.445 " />
<polygon stroke="black" stroke-width="1" fill="rgb(204, 204, 204)" fill-opacity="1" points="1665.796,410.440 2382.976,426.499 2382.976,344.647 1665.796,312.531 " />
<polygon stroke="black" stroke-width="1" fill="rgb(204, 204, 204)" fill-opacity="1" points="1215.032,402.870 1665.796,410.440 1665.796,312.531 1215.032,297.392 " />
<polygon stroke="black" stroke-width="1" fill="rgb(204, 204, 204)" fill-opacity="1" points="764.269,395.301 1215.032,402.870 1215.032,297.392 764.269,282.251 " />
<polygon stroke="black" stroke-width="1" fill="rgb(204, 204, 204)" fill-opacity="1" points="313.505,387.731 764.269,395.301 764.269,282.251 313.505,267.111 " />
<polygon stroke="black" stroke-width="1" fill="rgb(204, 204, 204)" fill-opacity="1" points="313.505,387.731 313.505,267.111 58.989,267.111 58.989,387.731 " />
<polygon stroke="black" stroke-width="1" fill="rgb(204, 204, 204)" fill-opacity="1" points="58.640,634.457 58.640,755.076 464.783,751.214 464.783,632.526 " />
<polygon stroke="black" stroke-width="1" fill="rgb(204, 204, 204)" fill-opacity="1" points="464.783,632.526 464.783,751.214 956.998,737.096 956.998,625.467 " />
<polygon stroke="black" stroke-width="1" fill="rgb(204, 204, 204)" fill-opacity="1" points="956.998,625.467 956.998,737.096 1337.128,717.829 1337.128,615.833 " />
<polygon stroke="black" stroke-width="1" fill="rgb(204, 204, 204)" fill-opacity="1" points="1337.128,615.833 1337.128,717.829 1545.597,672.900 1545.597,593.368 " />
<polygon stroke="black" stroke-width="1" fill="rgb(204, 204, 204)" fill-opacity="1" points="1545.597,593.368 1545.597,672.900 1663.213,639.961 1663.213,576.899 " />
<polygon stroke="black" stroke-width="1" fill="rgb(204, 204, 204)" fill-opacity="1" points="1663.213,576.899 1663.213,639.961 1789.562,595.447 1789.562,554.643 " />
<polygon stroke="black" stroke-width="1" fill="rgb(204, 204, 204)" fill-opacity="1" points="1789.562,554.643 1789.562,595.447 1907.363,554.214 1907.363,534.026 " />
<polygon stroke="black" stroke-width="1" fill="rgb(204, 204, 204)" fill-opacity="1" points="1953.337,993.520 1907.363,973.332 1907.363,993.520 1953.337,1003.614 " />
<polygon stroke="black" stroke-width="1" fill="rgb(204, 204, 204)" fill-opacity="1" points="2846.008,377.666 2382.976,344.647 2382.976,426.499 2846.008,443.007 " />
<polygon stroke="black" stroke-width="1" fill="rgb(204, 204, 204)" fill-opacity="1" points="1953.337,534.026 1953.337,523.932 1907.363,534.026 1907.363,554.214 " />
<polygon stroke="black" stroke-width="1" fill="rgb(204, 204, 204)" fill-opacity="1" points="1663.213,513.837 1663.213,576.899 1789.562,554.643 1789.562,513.837 " />
<polygon stroke="black" stroke-width="1" fill="rgb(204, 204, 204)" fill-opacity="1" points="1545.597,513.837 1545.597,593.368 1663.213,576.899 1663.213,513.837 " />
<polygon stroke="black" stroke-width="1" fill="rgb(204, 204, 204)" fill-opacity="1" points="1337.128,513.837 1337.128,615.833 1545.597,593.368 1545.597,513.837 " />
<polygon stroke="black" stroke-width="1" fill="rgb(204, 204, 204)" fill-opacity="1" points="956.998,513.837 956.998,625.467 1337.128,615.833 1337.128,513.837 " />
<polygon stroke="black" stroke-width="1" fill="rgb(204, 204, 204)" fill-opacity="1" points="464.783,513.837 464.783,632.526 956.998,625.467 956.998,513.837 " />
<polygon stroke="black" stroke-width="1" fill="rgb(204, 204, 204)" fill-opacity="1" points="58.640,513.837 58.640,634.457 464.783,632.526 464.783,513.837 " />
<polygon stroke="black" stroke-width="1" fill="rgb(204, 204, 204)" fill-opacity="1" points="313.505,508.350 313.505,387.731 58.989,387.731 58.989,508.350 " />
<polygon stroke="black" stroke-width="1" fill="rgb(204, 204, 204)" fill-opacity="1" points="313.505,508.350 764.269,508.350 764.269,395.301 313.505,387.731 " />
<polygon stroke="black" stroke-width="1" fill="rgb(204, 204, 204)" fill-opacity="1" points="764.269,508.350 1215.032,508.350 1215.032,402.870 764.269,395.301 " />
<polygon stroke="black" stroke-width="1" fill="rgb(204, 204, 204)" fill-opacity="1" points="1215.032,508.350 1665.796,508.350 1665.796,410.440 1215.032,402.870 " />
<polygon stroke="black" stroke-width="1" fill="rgb(204, 204, 204)" fill-opacity="1" points="1665.796,508.350 2382.976,508.350 2382.976,426.499 1665.796,410.440 " />
<polygon stroke="black" stroke-width="1" fill="rgb(204, 204, 204)" fill-opacity="1" points="2846.010,20.762 2382.979,20.762 2382.979,102.612 2846.010,86.104 " />
<polygon stroke="black" stroke-width="1" fill="rgb(204, 204, 204)" fill-opacity="1" points="2053.667,938.841 2396.770,938.841 2396.770,881.621 2053.667,880.931 " />
<polygon stroke="black" stroke-width="1" fill="rgb(204, 204, 204)" fill-opacity="1" points="2396.770,938.841 2705.246,938.841 2705.246,884.895 2396.770,881.621 " />
<polygon stroke="black" stroke-width="1" fill="rgb(204, 204, 204)" fill-opacity="1" points="2705.246,938.841 2882.319,938.841 2882.319,889.234 2705.246,884.895 " />
<polygon stroke="black" stroke-width="1" fill="rgb(204, 204, 204)" fill-opacity="1" points="2882.319,938.841 2991.596,938.841 2991.596,900.657 2882.319,889.234 " />
<polygon stroke="black" stroke-width="1" fill="rgb(204, 204, 204)" fill-opacity="1" points="2991.596,938.841 3048.065,938.841 3048.065,908.564 2991.596,900.657 " />
<polygon stroke="black" stroke-width="1" fill="rgb(204, 204, 204)" fill-opacity="1" points="3048.065,938.841 3108.726,938.841 3108.726,919.250 3048.065,908.564 " />
<polygon stroke="black" stroke-width="1" fill="rgb(204, 204, 204)" fill-opacity="1" points="3108.726,938.841 3165.283,938.841 3165.283,929.148 3108.726,919.250 " />
<polygon stroke="black" stroke-width="1" fill="rgb(204, 204, 204)" fill-opacity="1" points="2846.010,86.104 3070.204,78.672 3070.204,20.762 2846.010,20.762 " />
<polygon stroke="black" stroke-width="1" fill="rgb(204, 204, 204)" fill-opacity="1" points="3836.237,3343.525 3883.337,3342.818 3838.819,2892.010 3794.922,2892.708 " />
<polygon stroke="black" stroke-width="1" fill="rgb(204, 204, 204)" fill-opacity="1" points="3877.547,3794.880 3927.850,3794.079 3883.337,3342.818 3836.237,3343.525 " />
<polygon stroke="black" stroke-width="1" fill="rgb(204, 204, 204)" fill-opacity="1" points="3370.728,1266.879 3397.747,1265.772 3221.826,1038.406 3197.822,1039.472 " />
<polygon stroke="black" stroke-width="1" fill="rgb(204, 204, 204)" fill-opacity="1" points="3576.654,1728.668 3610.568,1727.648 3397.747,1265.772 3370.728,1266.879 " />
<polygon stroke="black" stroke-width="1" fill="rgb(204, 204, 204)" fill-opacity="1" points="3752.927,2442.859 3793.583,2442.029 3610.568,1727.648 3576.654,1728.668 " />
<polygon stroke="black" stroke-width="1" fill="rgb(204, 204, 204)" fill-opacity="1" points="3794.922,2892.708 3838.819,2892.010 3793.583,2442.029 3752.927,2442.859 " />
<polygon stroke="black" stroke-width="1" fill="rgb(204, 204, 204)" fill-opacity="1" points="3930.736,4049.911 3981.017,4049.068 3927.850,3794.079 3877.547,3794.880 " />
<polygon stroke="black" stroke-width="1" fill="rgb(204, 204, 204)" fill-opacity="1" points="1953.337,513.838 1953.337,523.932 1999.312,513.838 " />
<polygon stroke="black" stroke-width="1" fill="rgb(204, 204, 204)" fill-opacity="1" points="1953.337,993.520 1953.337,1003.614 1999.312,1013.708 " />
<polygon stroke="black" stroke-width="1" fill="rgb(204, 204, 204)" fill-opacity="1" points="3108.726,728.989 3165.283,709.192 3165.283,699.500 3108.726,709.398 " />
<polygon stroke="black" stroke-width="1" fill="rgb(204, 204, 204)" fill-opacity="1" points="3048.065,750.360 3108.726,728.989 3108.726,709.398 3048.065,720.084 " />
<polygon stroke="black" stroke-width="1" fill="rgb(204, 204, 204)" fill-opacity="1" points="2991.596,766.174 3048.065,750.360 3048.065,720.084 2991.596,727.991 " />
<polygon stroke="black" stroke-width="1" fill="rgb(204, 204, 204)" fill-opacity="1" points="2882.319,789.021 2991.596,766.174 2991.596,727.991 2882.319,739.415 " />
<polygon stroke="black" stroke-width="1" fill="rgb(204, 204, 204)" fill-opacity="1" points="2705.246,797.699 2882.319,789.021 2882.319,739.415 2705.246,743.753 " />
<polygon stroke="black" stroke-width="1" fill="rgb(204, 204, 204)" fill-opacity="1" points="2396.769,804.248 2705.246,797.699 2705.246,743.753 2396.769,747.028 " />
<polygon stroke="black" stroke-width="1" fill="rgb(204, 204, 204)" fill-opacity="1" points="2053.667,805.627 2396.769,804.248 2396.769,747.028 2053.667,747.717 " />
<polygon stroke="black" stroke-width="1" fill="rgb(204, 204, 204)" fill-opacity="1" points="2846.010,151.445 3070.203,136.582 3070.204,78.672 2846.010,86.104 " />
<polygon stroke="black" stroke-width="1" fill="rgb(204, 204, 204)" fill-opacity="1" points="1665.798,216.579 2382.979,184.464 2382.979,102.612 1665.798,118.670 " />
<polygon stroke="black" stroke-width="1" fill="rgb(204, 204, 204)" fill-opacity="1" points="1215.034,231.719 1665.798,216.579 1665.798,118.670 1215.034,126.240 " />
<polygon stroke="black" stroke-width="1" fill="rgb(204, 204, 204)" fill-opacity="1" points="764.270,246.860 1215.034,231.719 1215.034,126.240 764.270,133.811 " />
<polygon stroke="black" stroke-width="1" fill="rgb(204, 204, 204)" fill-opacity="1" points="313.505,262.000 764.270,246.860 764.270,133.811 313.505,141.380 " />
<polygon stroke="black" stroke-width="1" fill="rgb(204, 204, 204)" fill-opacity="1" points="313.505,262.000 313.505,141.380 58.989,141.380 58.989,262.000 " />
<polygon stroke="black" stroke-width="1" fill="rgb(204, 204, 204)" fill-opacity="1" points="58.640,772.469 58.640,893.089 464.783,895.020 464.783,776.331 " />
<polygon stroke="black" stroke-width="1" fill="rgb(204, 204, 204)" fill-opacity="1" points="464.783,776.331 464.783,895.020 956.998,902.079 956.998,790.449 " />
<polygon stroke="black" stroke-width="1" fill="rgb(204, 204, 204)" fill-opacity="1" points="956.998,790.449 956.998,902.079 1337.128,911.713 1337.128,809.717 " />
<polygon stroke="black" stroke-width="1" fill="rgb(204, 204, 204)" fill-opacity="1" points="1337.128,809.717 1337.128,911.713 1545.597,934.177 1545.597,854.646 " />
<polygon stroke="black" stroke-width="1" fill="rgb(204, 204, 204)" fill-opacity="1" points="1545.597,854.646 1545.597,934.177 1663.213,950.647 1663.213,887.585 " />
<polygon stroke="black" stroke-width="1" fill="rgb(204, 204, 204)" fill-opacity="1" points="1663.213,887.585 1663.213,950.647 1789.562,972.904 1789.562,932.099 " />
<polygon stroke="black" stroke-width="1" fill="rgb(204, 204, 204)" fill-opacity="1" points="1789.562,932.099 1789.562,972.904 1907.363,993.520 1907.363,973.332 " />
<polygon stroke="black" stroke-width="1" fill="rgb(204, 204, 204)" fill-opacity="1" points="1953.337,1013.708 1999.312,1013.708 1953.337,1003.614 " />
<polygon stroke="black" stroke-width="1" fill="rgb(204, 204, 204)" fill-opacity="1" points="2846.008,508.350 3070.203,508.350 3070.203,450.439 2846.008,443.007 " />
<polygon stroke="black" stroke-width="1" fill="rgb(204, 204, 204)" fill-opacity="1" points="1953.337,534.026 1999.312,513.838 1953.337,523.932 " />
<polygon stroke="black" stroke-width="1" fill="rgb(204, 204, 204)" fill-opacity="1" points="253.700,3343.528 295.016,2892.711 251.118,2892.012 206.600,3342.821 " />
<polygon stroke="black" stroke-width="1" fill="rgb(204, 204, 204)" fill-opacity="1" points="212.391,3794.884 253.700,3343.528 206.600,3342.821 162.088,3794.083 " />
<polygon stroke="black" stroke-width="1" fill="rgb(204, 204, 204)" fill-opacity="1" points="665.157,1264.680 692.188,1265.775 868.108,1038.409 844.144,1037.350 " />
<polygon stroke="black" stroke-width="1" fill="rgb(204, 204, 204)" fill-opacity="1" points="445.446,1726.636 479.367,1727.652 692.188,1265.775 665.157,1264.680 " />
<polygon stroke="black" stroke-width="1" fill="rgb(204, 204, 204)" fill-opacity="1" points="255.677,2441.199 296.354,2442.032 479.367,1727.652 445.446,1726.636 " />
<polygon stroke="black" stroke-width="1" fill="rgb(204, 204, 204)" fill-opacity="1" points="295.016,2892.711 337.010,2442.863 296.354,2442.032 251.118,2892.012 " />
<polygon stroke="black" stroke-width="1" fill="rgb(204, 204, 204)" fill-opacity="1" points="159.203,4049.916 212.391,3794.884 162.088,3794.083 108.921,4049.072 " />
<polygon stroke="black" stroke-width="1" fill="rgb(204, 204, 204)" fill-opacity="1" points="1789.562,513.837 1789.562,554.643 1907.363,534.026 1907.363,513.837 " />
<polygon stroke="black" stroke-width="1" fill="rgb(204, 204, 204)" fill-opacity="1" points="3108.726,709.398 3165.283,699.500 3165.283,689.807 3108.726,689.807 " />
<polygon stroke="black" stroke-width="1" fill="rgb(204, 204, 204)" fill-opacity="1" points="3048.065,720.084 3108.726,709.398 3108.726,689.807 3048.065,689.807 " />
<polygon stroke="black" stroke-width="1" fill="rgb(204, 204, 204)" fill-opacity="1" points="2991.596,727.991 3048.065,720.084 3048.065,689.807 2991.596,689.807 " />
<polygon stroke="black" stroke-width="1" fill="rgb(204, 204, 204)" fill-opacity="1" points="2882.319,739.415 2991.596,727.991 2991.596,689.807 2882.319,689.807 " />
<polygon stroke="black" stroke-width="1" fill="rgb(204, 204, 204)" fill-opacity="1" points="2705.246,743.753 2882.319,739.415 2882.319,689.807 2705.246,689.807 " />
<polygon stroke="black" stroke-width="1" fill="rgb(204, 204, 204)" fill-opacity="1" points="2396.769,747.028 2705.246,743.753 2705.246,689.807 2396.769,689.807 " />
<polygon stroke="black" stroke-width="1" fill="rgb(204, 204, 204)" fill-opacity="1" points="2053.667,747.717 2396.769,747.028 2396.769,689.807 2053.667,689.807 " />
<polygon stroke="black" stroke-width="1" fill="rgb(204, 204, 204)" fill-opacity="1" points="2846.008,443.007 2382.976,426.499 2382.976,508.350 2846.008,508.350 " />
<polygon stroke="black" stroke-width="1" fill="rgb(204, 204, 204)" fill-opacity="1" points="1665.798,118.670 2382.979,102.612 2382.979,20.762 1665.798,20.761 " />
<polygon stroke="black" stroke-width="1" fill="rgb(204, 204, 204)" fill-opacity="1" points="1215.034,126.240 1665.798,118.670 1665.798,20.761 1215.034,20.761 " />
<polygon stroke="black" stroke-width="1" fill="rgb(204, 204, 204)" fill-opacity="1" points="764.270,133.811 1215.034,126.240 1215.034,20.761 764.270,20.761 " />
<polygon stroke="black" stroke-width="1" fill="rgb(204, 204, 204)" fill-opacity="1" points="313.505,141.380 764.270,133.811 764.270,20.761 313.505,20.761 " />
<polygon stroke="black" stroke-width="1" fill="rgb(204, 204, 204)" fill-opacity="1" points="313.505,141.380 313.505,20.761 58.989,20.761 58.989,141.380 " />
<polygon stroke="black" stroke-width="1" fill="rgb(204, 204, 204)" fill-opacity="1" points="58.640,893.089 58.640,1013.708 464.783,1013.708 464.783,895.020 " />
<polygon stroke="black" stroke-width="1" fill="rgb(204, 204, 204)" fill-opacity="1" points="464.783,895.020 464.783,1013.708 956.998,1013.708 956.998,902.079 " />
<polygon stroke="black" stroke-width="1" fill="rgb(204, 204, 204)" fill-opacity="1" points="956.998,902.079 956.998,1013.708 1337.128,1013.708 1337.128,911.713 " />
<polygon stroke="black" stroke-width="1" fill="rgb(204, 204, 204)" fill-opacity="1" points="1337.128,911.713 1337.128,1013.708 1545.597,1013.708 1545.597,934.177 " />
<polygon stroke="black" stroke-width="1" fill="rgb(204, 204, 204)" fill-opacity="1" points="1545.597,934.177 1545.597,1013.708 1663.213,1013.708 1663.213,950.647 " />
<polygon stroke="black" stroke-width="1" fill="rgb(204, 204, 204)" fill-opacity="1" points="1663.213,950.647 1663.213,1013.708 1789.562,1013.708 1789.562,972.904 " />
<polygon stroke="black" stroke-width="1" fill="rgb(204, 204, 204)" fill-opacity="1" points="1953.337,1013.708 1953.337,1003.614 1907.363,993.520 1907.363,1013.708 " />
<polygon stroke="black" stroke-width="1" fill="rgb(204, 204, 204)" fill-opacity="1" points="1907.363,534.026 1953.337,523.932 1953.337,513.838 1907.363,513.837 " />
<polygon stroke="black" stroke-width="1" fill="rgb(204, 204, 204)" fill-opacity="1" points="3187.356,929.148 3165.283,919.456 3165.283,929.148 3187.356,933.995 " />
<polygon stroke="black" stroke-width="1" fill="rgb(204, 204, 204)" fill-opacity="1" points="3165.283,929.148 3165.283,938.841 3187.355,938.841 3187.356,933.995 " />
<polygon stroke="black" stroke-width="1" fill="rgb(204, 204, 204)" fill-opacity="1" points="3187.356,689.808 3165.283,689.807 3165.283,699.500 3187.356,694.654 " />
<polygon stroke="black" stroke-width="1" fill="rgb(204, 204, 204)" fill-opacity="1" points="3165.283,709.192 3187.356,699.500 3187.356,694.654 3165.283,699.500 " />
<polygon stroke="black" stroke-width="1" fill="rgb(204, 204, 204)" fill-opacity="1" points="3187.356,929.148 3187.356,933.995 3209.428,938.841 " />
<polygon stroke="black" stroke-width="1" fill="rgb(204, 204, 204)" fill-opacity="1" points="3187.355,938.841 3209.428,938.841 3187.356,933.995 " />
<polygon stroke="black" stroke-width="1" fill="rgb(204, 204, 204)" fill-opacity="1" points="3187.356,689.808 3187.356,694.654 3209.429,689.808 " />
<polygon stroke="black" stroke-width="1" fill="rgb(204, 204, 204)" fill-opacity="1" points="3187.356,699.500 3209.429,689.808 3187.356,694.654 " />

</svg>
